path,ymin,xmax,ymax,xmin
kękę/63.jpg,93,649,179,563
kękę/63.jpg,112,1183,215,1079
kękę/77.jpg,439,680,749,370
kękę/88.jpg,591,591,806,376
kękę/88.jpg,112,244,261,95
kękę/88.jpg,543,825,692,676
kękę/88.jpg,77,541,149,469
kękę/228.jpg,64,371,150,285
kękę/229.jpg,54,333,234,154
kękę/229.jpg,35,532,214,353
kękę/413.jpg,31,492,135,388
kękę/89.jpg,54,592,234,413
kękę/76.jpg,74,198,160,112
kękę/62.jpg,12,228,161,78
kękę/74.jpg,509,595,767,337
kękę/363.jpg,93,323,179,237
kękę/203.jpg,112,377,261,228
kękę/202.jpg,29,189,101,117
kękę/376.jpg,79,756,203,632
kękę/174.jpg,65,377,169,273
kękę/148.jpg,121,419,208,333
kękę/61.jpg,42,549,146,446
kękę/59.jpg,62,742,211,593
kękę/71.jpg,93,259,217,134
kękę/71.jpg,51,659,176,535
kękę/170.jpg,120,383,245,259
kękę/170.jpg,29,792,178,642
kękę/158.jpg,73,1064,445,692
kękę/158.jpg,108,366,366,108
kękę/400.jpg,178,211,327,62
kękę/400.jpg,189,369,314,245
kękę/165.jpg,95,344,244,194
kękę/64.jpg,61,413,133,341
kękę/70.jpg,245,557,317,485
kękę/58.jpg,165,394,423,136
kękę/58.jpg,591,902,806,687
kękę/58.jpg,526,1306,676,1157
kękę/58.jpg,94,1388,273,1209
kękę/58.jpg,612,353,791,174
kękę/8.jpg,62,377,211,228
kękę/371.jpg,123,204,227,100
kękę/211.jpg,66,400,281,185
kękę/239.jpg,117,253,189,181
kękę/205.png,280,775,651,404
kękę/238.jpg,114,632,293,453
kękę/172.jpg,0,633,435,187
kękę/166.jpg,328,448,543,233
kękę/166.jpg,233,878,448,663
kękę/73.jpg,443,676,593,526
kękę/199.jpg,62,344,211,194
kękę/67.jpg,117,485,189,413
kękę/9.jpg,65,383,189,259
kękę/28.jpg,121,640,208,553
kękę/101.jpg,134,659,259,535
kękę/101.jpg,217,328,342,203
kękę/317.jpg,277,349,349,277
kękę/262.jpg,157,237,229,165
kękę/262.jpg,149,373,221,301
kękę/510.jpg,304,525,390,438
kękę/29.jpg,496,1010,1266,239
kękę/15.jpg,54,294,141,208
kękę/275.jpg,353,851,532,672
kękę/103.jpg,189,549,314,424
kękę/117.jpg,198,1574,508,1265
kękę/117.jpg,238,692,610,321
kękę/16.jpg,94,552,273,373
kękę/113.jpg,307,434,411,330
kękę/113.jpg,381,589,453,517
kękę/113.jpg,307,261,411,158
kękę/113.jpg,108,738,366,480
kękę/488.jpg,181,365,253,293
kękę/488.jpg,170,275,256,189
kękę/12.png,107,355,231,231
kękę/339.jpg,54,371,141,285
kękę/339.jpg,78,277,228,128
kękę/265.jpg,112,192,215,89
kękę/265.jpg,112,486,198,400
kękę/271.jpg,302,474,611,164
kękę/258.jpg,135,503,238,400
kękę/270.jpg,134,812,259,687
kękę/270.jpg,107,452,231,328
kękę/338.jpg,485,597,552,525
kękę/304.jpg,93,453,165,381
kękę/310.jpg,135,526,238,423
kękę/112.jpg,37,341,109,269
kękę/39.jpg,120,383,245,259
kękę/11.jpg,366,509,624,251
kękę/104.jpg,65,342,189,217
kękę/298.png,215,584,319,480
kękę/515.jpg,227,218,314,131
kękę/515.jpg,221,349,293,277
kękę/515.jpg,342,314,429,227
kękę/307.jpg,637,901,709,829
kękę/139.png,205,365,277,293
kękę/139.png,205,157,277,85
kękę/139.png,35,525,121,438
kękę/139.png,37,357,109,285
kękę/139.png,53,141,125,69
kękę/105.jpg,130,783,439,474
kękę/21.jpg,108,308,366,50
kękę/108.jpg,280,940,651,569
kękę/487.jpg,62,311,211,161
kękę/487.jpg,51,521,176,397
kękę/295.jpg,61,277,133,205
kękę/256.jpg,137,472,352,257
kękę/243.jpg,37,197,109,125
kękę/337.jpg,102,179,189,93
kękę/337.jpg,117,373,189,301
kękę/121.jpg,62,344,211,194
kękę/109.jpg,158,814,261,711
kękę/34.jpg,35,353,214,174
kękę/20.jpg,215,538,319,434
kękę/36.jpg,136,681,394,423
kękę/22.jpg,174,492,353,313
kękę/137.jpg,197,899,569,527
kękę/123.jpg,29,285,101,213
kękę/447.jpg,569,940,940,569
kękę/447.jpg,521,259,646,134
kękę/447.jpg,245,285,317,213
kękę/532.jpg,37,549,162,424
kękę/532.jpg,24,687,148,563
kękę/268.jpg,135,377,238,273
kękę/320.jpg,135,457,238,353
kękę/122.jpg,66,376,281,161
kękę/136.jpg,31,284,135,181
kękę/23.jpg,95,228,244,78
kękę/33.jpg,194,771,373,592
kękę/27.jpg,194,512,373,333
kękę/132.jpg,79,452,337,194
kękę/126.jpg,225,1236,760,701
kękę/481.jpg,45,381,117,309
kękę/244.jpg,54,448,141,362
kękę/292.jpg,164,990,474,680
kękę/331.jpg,755,477,841,390
kękę/331.jpg,393,691,572,512
kękę/457.jpg,300,784,424,659
kękę/127.jpg,61,205,133,133
kękę/133.jpg,165,710,423,452
kękę/26.jpg,136,337,394,79
kękę/32.jpg,131,525,218,438
kękę/24.jpg,74,473,254,293
kękę/30.jpg,37,253,109,181
kękę/125.jpg,112,427,261,277
kękę/131.jpg,78,360,228,211
kękę/327.jpg,101,429,173,357
kękę/253.jpg,45,325,117,253
kękę/246.jpg,136,509,394,251
kękę/31.png,26,246,112,160
kękę/19.png,134,293,313,114
kękę/326.jpg,341,405,413,333
kękę/118.jpg,100,273,204,169
kękę/130.jpg,121,390,208,304
kękę/130.jpg,150,285,237,198
kękę/124.jpg,51,535,176,411
kękę/25.jpg,509,1283,767,1025
kękę/42.jpg,45,304,131,218
kękę/4.jpg,280,509,538,251
kękę/56.jpg,53,341,125,269
kękę/180.jpg,74,234,254,54
kękę/81.jpg,74,313,254,134
kękę/157.jpg,148,881,272,756
kękę/157.jpg,114,492,293,313
kękę/546.jpg,245,349,317,277
kękę/546.jpg,269,677,341,605
kękę/546.jpg,309,533,381,461
kękę/208.jpg,137,472,352,257
kękę/354.jpg,443,377,593,228
kękę/354.jpg,146,169,250,65
kękę/354.jpg,429,525,515,438
kękę/383.jpg,112,525,198,438
kękę/383.jpg,121,362,208,275
kękę/383.jpg,121,218,208,131
kękę/156.jpg,366,452,624,194
kękę/142.jpg,179,314,266,227
kękę/142.jpg,160,189,246,102
kękę/181.jpg,85,549,157,477
kękę/43.jpg,130,921,439,611
kękę/7.jpg,95,344,244,194
kękę/41.jpg,222,452,480,194
kękę/69.jpg,85,141,150,69
kękę/96.jpg,93,294,179,208
kękę/168.jpg,181,595,284,492
kękę/168.jpg,93,203,217,79
kękę/82.jpg,94,592,273,413
kękę/154.jpg,233,352,448,137
kękę/237.jpg,113,687,328,472
kękę/357.jpg,114,552,293,373
kękę/419.jpg,373,214,552,35
kękę/155.jpg,403,760,938,225
kękę/83.jpg,112,506,198,419
kękę/97.jpg,108,337,366,79
kękę/97.jpg,123,572,227,469
kękę/68.jpg,174,751,353,572
kękę/40.jpg,128,377,277,228
kękę/192.jpg,113,806,328,591
kękę/2.jpg,270,1412,912,770
kękę/50.jpg,47,998,582,463
kękę/44.jpg,154,453,333,273
kękę/151.jpg,94,433,273,254
kękę/87.jpg,214,612,393,433
kękę/179.jpg,0,423,251,165
kękę/353.jpg,93,269,165,197
kękę/352.jpg,112,891,261,742
kękę/144.jpg,61,646,300,336
kękę/150.jpg,54,573,141,486
kękę/45.jpg,161,615,376,400
kękę/3.jpg,161,806,376,591
kękę/51.jpg,64,486,150,400
kękę/79.jpg,65,383,189,259
kękę/1.jpg,112,365,215,261
kękę/146.jpg,1471,1850,1781,1540
kękę/146.jpg,1506,2847,1815,2538
kękę/84.jpg,78,194,228,45
kękę/84.jpg,53,541,125,469
kękę/90.jpg,217,577,342,452
kękę/185.png,78,344,228,194
kękę/556.jpg,323,1082,410,995
kękę/224.jpg,0,646,285,336
kękę/218.jpg,404,1270,775,899
kękę/219.jpg,93,357,165,285
kękę/225.jpg,74,563,160,477
kękę/225.jpg,150,266,237,179
kękę/392.jpg,77,389,149,317
kękę/386.jpg,161,639,376,424
kękę/91.jpg,108,939,366,681
kękę/91.jpg,130,646,439,336
kękę/91.jpg,90,233,305,18
kękę/147.jpg,233,1021,448,806
kękę/52.jpg,29,311,178,161
kękę/0.jpg,336,1178,782,732
kękę/46.jpg,161,410,311,261
kękę/190.jpg,413,3052,1055,2410
kękę/184.jpg,0,261,145,112
ostr/63.jpg,65,355,189,231
ostr/162.jpg,74,731,254,552
ostr/162.jpg,0,435,435,0
ostr/176.jpg,74,170,160,83
ostr/88.jpg,65,250,169,146
ostr/77.png,0,577,302,267
ostr/412.jpg,496,567,711,352
ostr/412.jpg,423,968,681,710
ostr/412.jpg,474,370,768,61
ostr/412.jpg,234,950,413,771
ostr/374.jpg,53,149,125,77
ostr/374.jpg,45,253,117,181
ostr/228.jpg,176,466,300,342
ostr/228.jpg,94,353,273,174
ostr/214.jpg,0,424,209,209
ostr/201.jpg,0,522,463,0
ostr/349.jpg,93,507,217,383
ostr/177.jpg,149,445,221,373
ostr/177.jpg,381,629,453,557
ostr/89.jpg,29,293,101,221
ostr/89.jpg,101,213,173,141
ostr/76.jpg,54,492,234,313
ostr/60.jpg,69,277,141,205
ostr/60.jpg,221,293,293,221
ostr/175.jpg,112,427,261,277
ostr/161.jpg,64,160,150,74
ostr/388.jpg,117,301,189,229
ostr/388.jpg,65,231,189,107
ostr/377.jpg,79,538,337,280
ostr/363.jpg,150,630,237,544
ostr/217.jpg,160,448,246,362
ostr/216.jpg,26,474,336,164
ostr/202.jpg,78,443,228,294
ostr/202.jpg,0,1185,120,1060
ostr/389.jpg,65,112,169,8
ostr/174.jpg,100,353,204,250
ostr/148.jpg,85,517,157,445
ostr/49.jpg,107,397,231,272
ostr/61.jpg,114,254,293,74
ostr/61.jpg,94,532,273,353
ostr/75.jpg,0,879,522,344
ostr/59.jpg,174,532,353,353
ostr/71.jpg,115,816,486,445
ostr/164.jpg,95,228,244,78
ostr/560.jpg,123,457,227,353
ostr/560.jpg,102,304,189,218
ostr/206.jpg,107,369,231,245
ostr/213.jpg,194,512,373,333
ostr/429.jpg,293,273,473,94
ostr/429.jpg,257,567,472,352
ostr/401.jpg,141,640,227,553
ostr/159.png,83,381,170,294
ostr/165.jpg,74,198,160,112
ostr/64.jpg,66,281,281,66
ostr/58.jpg,37,148,162,24
ostr/198.jpg,85,125,157,53
ostr/66.jpg,74,532,254,353
ostr/99.png,37,383,162,259
ostr/211.jpg,246,294,333,208
ostr/238.jpg,54,353,158,250
ostr/210.jpg,233,818,484,508
ostr/358.jpg,100,319,204,215
ostr/364.jpg,29,344,178,194
ostr/166.jpg,211,394,360,244
ostr/98.jpg,89,538,192,434
ostr/73.jpg,137,233,352,18
ostr/199.jpg,45,460,194,311
ostr/67.jpg,77,509,149,437
ostr/9.jpg,47,998,582,463
ostr/14.jpg,89,273,192,169
ostr/129.jpg,68,838,838,68
ostr/101.jpg,29,228,178,78
ostr/465.jpg,45,429,131,342
ostr/317.jpg,189,381,275,294
ostr/277.jpg,178,460,327,311
ostr/277.jpg,161,742,311,593
ostr/277.jpg,194,161,344,12
ostr/263.jpg,362,816,734,445
ostr/263.jpg,542,474,852,164
ostr/262.png,45,593,194,443
ostr/276.jpg,79,632,203,507
ostr/289.jpg,18,305,233,90
ostr/302.jpg,37,293,109,221
ostr/302.jpg,61,413,133,341
ostr/139.jpeg,66,520,281,305
ostr/100.jpg,18,257,233,42
ostr/15.jpg,197,816,569,445
ostr/17.jpg,89,480,192,377
ostr/116.jpg,37,687,162,563
ostr/102.jpg,62,460,211,311
ostr/472.jpg,296,503,400,400
ostr/472.jpg,293,373,473,194
ostr/472.jpg,512,254,691,74
ostr/472.jpg,141,229,213,157
ostr/314.jpg,37,333,109,261
ostr/248.jpg,42,123,146,19
ostr/248.jpg,333,717,405,645
ostr/248.jpg,45,208,131,121
ostr/248.jpg,65,664,169,561
ostr/248.jpg,54,285,141,198
ostr/248.jpg,342,294,429,208
ostr/260.jpg,95,228,244,78
ostr/260.jpg,79,770,203,646
ostr/513.jpg,125,581,197,509
ostr/513.jpg,134,314,259,189
ostr/301.jpg,337,566,595,308
ostr/473.jpg,205,693,277,621
ostr/103.jpg,128,825,277,676
ostr/16.jpg,112,510,261,360
ostr/12.jpg,120,659,245,535
ostr/107.jpg,112,576,261,427
ostr/107.jpg,173,693,245,621
ostr/107.jpg,178,825,327,676
ostr/311.jpg,64,534,150,448
ostr/463.jpg,15,254,194,74
ostr/339.jpg,0,394,251,136
ostr/271.jpg,203,342,328,217
ostr/258.jpg,0,879,522,344
ostr/502.jpg,61,525,133,453
ostr/502.jpg,93,405,165,333
ostr/338.jpg,37,590,162,466
ostr/338.jpg,89,365,192,261
ostr/304.jpg,94,433,273,254
ostr/106.jpg,88,683,534,237
ostr/112.jpg,194,543,344,394
ostr/13.jpg,267,439,577,130
ostr/39.jpg,74,393,254,214
ostr/474.png,65,434,169,330
ostr/11.jpg,100,618,204,515
ostr/104.jpg,245,438,369,314
ostr/306.jpg,94,373,273,194
ostr/306.jpg,234,652,413,473
ostr/272.jpg,54,194,234,15
ostr/307.jpg,77,413,149,341
ostr/111.jpg,194,480,452,222
ostr/21.jpg,146,330,250,227
ostr/35.jpg,108,509,366,251
ostr/108.jpg,65,411,189,286
ostr/120.jpg,79,411,203,286
ostr/134.jpg,12,360,161,211
ostr/530.jpg,128,394,277,244
ostr/256.jpg,307,434,411,330
ostr/242.jpg,145,261,294,112
ostr/281.png,751,811,930,632
ostr/281.png,73,1023,445,651
ostr/243.jpg,18,615,233,400
ostr/257.jpg,120,673,245,549
ostr/257.jpg,79,1102,203,977
ostr/257.jpg,146,238,250,135
ostr/294.jpg,35,473,214,293
ostr/337.jpg,95,194,244,45
ostr/337.jpg,107,383,231,259
ostr/323.jpg,13,557,85,485
ostr/479.jpg,194,337,452,79
ostr/492.jpg,94,254,273,74
ostr/492.jpg,125,501,197,429
ostr/135.jpg,150,582,237,496
ostr/121.jpg,65,204,169,100
ostr/34.jpg,108,423,366,165
ostr/20.jpg,145,626,294,476
ostr/22.jpg,280,651,651,280
ostr/309.jpg,45,438,131,352
ostr/453.jpg,165,566,423,308
ostr/335.jpg,54,304,141,218
ostr/447.jpg,215,457,319,353
ostr/282.jpg,189,506,275,419
ostr/241.jpg,109,349,181,277
ostr/532.jpg,45,325,117,253
ostr/526.jpg,54,273,234,94
ostr/526.jpg,0,549,100,446
ostr/240.jpg,45,429,131,342
ostr/268.jpg,65,342,169,238
ostr/268.jpg,89,215,192,112
ostr/268.jpg,261,228,410,78
ostr/283.jpg,37,317,109,245
ostr/308.jpg,29,327,178,178
ostr/320.jpeg,65,250,169,146
ostr/136.jpg,0,452,251,194
ostr/452.png,54,393,234,214
ostr/23.jpg,0,522,522,0
ostr/37.jpg,113,352,328,137
ostr/33.jpg,29,205,101,133
ostr/132.jpg,18,376,233,161
ostr/126.jpg,12,178,161,29
ostr/442.jpg,253,557,325,485
ostr/442.jpg,131,429,218,342
ostr/293.jpg,79,355,203,231
ostr/244.jpg,42,352,257,137
ostr/279.jpg,94,492,273,313
ostr/537.jpg,146,664,250,561
ostr/537.jpg,79,466,203,342
ostr/286.jpg,164,646,474,336
ostr/325.jpg,94,851,273,672
ostr/480.jpg,161,642,311,493
ostr/127.jpg,112,365,215,261
ostr/26.jpg,89,549,192,446
ostr/18.jpg,64,438,150,352
ostr/24.jpg,62,327,211,178
ostr/30.jpg,115,1353,486,981
ostr/131.jpg,134,411,259,286
ostr/496.jpg,37,421,109,349
ostr/455.jpg,130,1643,439,1334
ostr/455.jpg,362,775,734,404
ostr/253.jpg,61,373,133,301
ostr/31.png,154,751,333,572
ostr/454.jpg,37,383,162,259
ostr/454.jpg,65,853,189,729
ostr/332.jpg,35,227,121,141
ostr/124.jpg,134,521,259,397
ostr/25.jpg,93,300,217,176
ostr/19.jpg,64,227,150,141
ostr/42.jpg,189,486,275,400
ostr/4.jpg,22,308,280,50
ostr/56.jpg,74,393,254,214
ostr/194.jpg,120,549,245,424
ostr/81.jpg,128,344,277,194
ostr/157.jpg,78,244,228,95
ostr/382.jpg,65,158,169,54
ostr/396.jpg,112,266,198,179
ostr/355.jpg,321,486,692,115
ostr/209.jpg,115,816,486,445
ostr/235.jpg,79,328,203,203
ostr/220.jpg,12,493,161,344
ostr/234.jpg,95,327,244,178
ostr/426.jpg,94,453,273,273
ostr/142.png,0,393,174,214
ostr/156.jpg,88,683,534,237
ostr/80.jpg,404,1601,775,1229
ostr/195.jpg,45,301,117,229
ostr/181.jpg,112,266,198,179
ostr/5.jpg,194,452,452,194
ostr/55.jpg,54,652,234,473
ostr/7.jpg,114,393,293,214
ostr/183.jpg,54,612,234,433
ostr/168.jpg,79,738,337,480
ostr/82.jpg,165,341,237,269
ostr/140.jpg,93,853,217,729
ostr/418.jpg,77,445,149,373
ostr/424.jpg,94,672,273,492
ostr/222.jpg,145,676,294,526
ostr/551.jpg,89,745,192,641
ostr/551.jpg,100,446,204,342
ostr/551.jpg,79,162,203,37
ostr/237.jpg,189,678,275,592
ostr/237.jpg,131,400,218,314
ostr/237.jpg,0,213,69,141
ostr/237.jpg,5,69,77,0
ostr/357.jpg,61,921,370,611
ostr/357.jpg,227,1187,314,1101
ostr/357.jpg,341,1269,413,1197
ostr/357.jpg,209,806,424,591
ostr/419.jpg,131,870,218,784
ostr/380.jpg,77,215,181,112
ostr/141.jpg,108,423,366,165
ostr/83.jpg,135,952,238,849
ostr/97.jpg,93,189,217,65
ostr/182.jpg,79,452,203,328
ostr/68.jpg,113,520,328,305
ostr/40.jpg,62,394,211,244
ostr/6.jpg,64,400,150,314
ostr/192.jpg,178,808,327,659
ostr/44.jpg,194,642,344,493
ostr/87.jpg,0,527,362,156
ostr/179.jpg,373,245,445,173
ostr/179.jpg,421,349,493,277
ostr/179.jpg,61,717,133,645
ostr/390.jpg,54,330,158,227
ostr/435.jpg,93,328,217,203
ostr/421.jpg,313,1448,492,1269
ostr/409.jpg,21,517,93,445
ostr/409.jpg,35,285,121,198
ostr/233.jpg,170,323,256,237
ostr/232.jpg,120,286,245,162
ostr/226.jpg,114,273,293,94
ostr/408.jpg,217,148,342,24
ostr/434.jpg,0,711,174,532
ostr/385.jpg,0,336,302,26
ostr/86.jpg,161,328,376,113
ostr/178.jpg,100,135,204,31
ostr/391.png,157,293,229,221
ostr/391.png,146,549,250,446
ostr/391.png,102,1034,189,947
ostr/144.jpg,77,296,181,192
ostr/3.jpg,128,377,277,228
ostr/51.jpg,24,480,148,355
ostr/79.jpg,234,1169,413,990
ostr/79.jpg,174,492,353,313
ostr/187.jpg,181,434,284,330
ostr/187.jpg,170,736,256,649
ostr/187.jpg,525,213,597,141
ostr/193.jpg,50,308,308,50
ostr/193.jpg,94,592,273,413
ostr/422.png,373,353,552,174
ostr/191.jpg,35,314,121,227
ostr/47.jpg,199,1269,841,627
ostr/1.jpg,102,314,189,227
ostr/90.jpg,352,909,438,822
ostr/350.jpg,162,203,286,79
ostr/378.jpg,161,376,376,161
ostr/230.jpg,101,109,173,37
ostr/230.jpg,160,573,246,486
ostr/230.jpg,125,485,197,413
ostr/230.jpg,65,319,169,215
ostr/230.jpg,109,213,181,141
ostr/224.jpg,134,512,313,333
ostr/218.png,32,331,404,0
ostr/225.jpg,112,323,198,237
ostr/379.jpg,198,646,508,336
ostr/153.png,133,773,205,701
ostr/153.png,173,933,245,861
ostr/153.png,69,341,141,269
ostr/153.png,157,181,229,109
ostr/153.png,101,685,173,613
ostr/153.png,45,534,131,448
ostr/91.jpg,411,480,535,355
ostr/52.jpg,93,381,165,309
ostr/0.jpg,37,521,162,397
ostr/46.jpg,120,286,245,162
ostr/190.jpg,65,272,189,148
otsochodzi/189.jpg,102,285,189,198
otsochodzi/162.jpg,213,653,285,581
otsochodzi/228.jpg,327,410,476,261
otsochodzi/201.jpg,234,393,413,214
otsochodzi/163.jpg,176,369,300,245
otsochodzi/188.jpg,178,460,327,311
otsochodzi/62.jpg,45,394,194,244
otsochodzi/74.jpg,74,652,254,473
otsochodzi/48.jpg,154,413,333,234
otsochodzi/175.jpg,161,775,311,626
otsochodzi/217.jpg,135,607,238,503
otsochodzi/49.jpg,61,309,133,237
otsochodzi/49.jpg,83,582,170,496
otsochodzi/61.jpg,45,311,194,161
otsochodzi/75.jpg,100,238,204,135
otsochodzi/65.jpg,108,509,366,251
otsochodzi/399.jpg,397,493,469,421
otsochodzi/159.png,285,661,357,589
otsochodzi/159.png,477,1157,549,1085
otsochodzi/171.jpg,85,653,157,581
otsochodzi/64.jpg,90,352,305,137
otsochodzi/8.jpg,214,473,393,293
otsochodzi/173.jpg,107,245,231,120
otsochodzi/403.jpg,45,208,131,121
otsochodzi/403.jpg,54,572,234,393
otsochodzi/98.jpg,64,515,150,429
otsochodzi/98.jpg,45,246,131,160
otsochodzi/73.jpg,161,609,311,460
otsochodzi/28.jpg,128,1007,277,858
otsochodzi/28.jpg,95,327,244,178
otsochodzi/277.jpg,61,453,133,381
otsochodzi/262.jpg,78,941,228,792
otsochodzi/262.jpg,61,613,133,541
otsochodzi/29.jpg,109,805,181,733
otsochodzi/29.jpg,325,293,397,221
otsochodzi/302.png,112,822,198,736
otsochodzi/302.png,109,589,181,517
otsochodzi/302.png,117,709,189,637
otsochodzi/302.png,64,438,150,352
otsochodzi/15.jpg,94,731,273,552
otsochodzi/17.jpg,93,325,165,253
otsochodzi/102.jpg,165,1312,423,1054
otsochodzi/301.jpg,94,1508,273,1329
otsochodzi/301.jpg,79,936,203,812
otsochodzi/301.jpg,107,1240,231,1116
otsochodzi/16.jpg,31,503,135,400
otsochodzi/12.jpg,178,244,327,95
otsochodzi/113.jpg,45,526,194,377
otsochodzi/113.jpg,54,215,158,112
otsochodzi/107.png,342,494,466,369
otsochodzi/107.png,352,1168,438,1082
otsochodzi/311.jpg,333,438,419,352
otsochodzi/311.jpg,0,305,209,90
otsochodzi/305.jpg,469,61,541,0
otsochodzi/305.jpg,397,314,521,189
otsochodzi/310.jpg,160,342,246,256
otsochodzi/13.jpg,0,424,209,209
otsochodzi/11.jpg,54,353,158,250
otsochodzi/104.jpg,352,266,438,179
otsochodzi/104.jpg,259,908,383,784
otsochodzi/272.png,411,535,535,411
otsochodzi/111.jpg,204,400,307,296
otsochodzi/111.jpg,257,878,472,663
otsochodzi/38.jpg,61,197,133,125
otsochodzi/120.jpg,245,148,369,24
otsochodzi/120.jpg,134,286,259,162
otsochodzi/35.png,134,300,259,176
otsochodzi/35.png,128,825,277,676
otsochodzi/63.jpeg,141,429,213,357
otsochodzi/294.png,381,515,467,429
otsochodzi/243.jpg,141,541,213,469
otsochodzi/109.png,161,758,311,609
otsochodzi/121.jpg,128,394,277,244
otsochodzi/34.jpg,107,632,231,507
otsochodzi/20.jpg,178,294,327,145
otsochodzi/254.jpg,53,237,125,165
otsochodzi/283.jpg,342,611,429,525
otsochodzi/308.jpg,54,256,141,170
otsochodzi/308.jpg,54,515,158,411
otsochodzi/136.jpg,154,771,333,592
otsochodzi/27.jpg,112,311,261,161
otsochodzi/244.png,42,472,257,257
otsochodzi/286.jpg,93,452,217,328
otsochodzi/319.jpg,0,300,145,161
otsochodzi/32.jpg,74,285,160,198
otsochodzi/18.jpg,245,1019,369,894
otsochodzi/24.jpg,100,561,204,457
otsochodzi/30.jpg,438,755,525,669
otsochodzi/30.jpg,413,477,485,405
otsochodzi/30.jpg,429,621,501,549
otsochodzi/125.jpg,114,751,293,572
otsochodzi/284.jpg,533,389,605,317
otsochodzi/252.jpg,77,709,149,637
otsochodzi/252.jpg,93,509,165,437
otsochodzi/326.jpg,109,261,181,189
otsochodzi/326.jpg,117,429,189,357
otsochodzi/118.jpg,74,246,160,160
otsochodzi/25.jpg,65,227,169,123
otsochodzi/19.jpg,165,996,423,738
otsochodzi/19.jpg,503,469,607,365
otsochodzi/19.jpg,572,1667,676,1563
otsochodzi/42.jpg,393,1727,572,1547
otsochodzi/56.jpg,228,476,377,327
otsochodzi/180.jpg,77,192,181,89
otsochodzi/81.jpg,54,342,158,238
otsochodzi/143.png,53,405,125,333
otsochodzi/143.png,83,227,170,141
otsochodzi/4.png,238,404,610,32
otsochodzi/4.png,233,1437,542,1127
otsochodzi/208.jpg,93,397,165,325
otsochodzi/195.png,194,731,373,552
otsochodzi/142.jpg,54,970,234,791
otsochodzi/142.jpg,94,791,273,612
otsochodzi/142.jpg,95,542,405,233
otsochodzi/5.jpg,93,604,217,480
otsochodzi/57.jpg,78,394,228,244
otsochodzi/43.jpg,79,397,203,272
otsochodzi/7.jpg,509,624,767,366
otsochodzi/357.jpg,107,701,231,577
otsochodzi/6.png,280,981,651,610
otsochodzi/394.jpg,102,83,189,0
otsochodzi/394.jpg,31,388,135,284
otsochodzi/97.jpg,169,135,273,31
otsochodzi/196.jpg,79,1025,337,767
otsochodzi/196.jpg,115,445,486,73
otsochodzi/186.jpg,13,285,85,213
otsochodzi/2.jpg,53,317,125,245
otsochodzi/50.jpg,94,453,273,273
otsochodzi/44.jpg,77,389,149,317
otsochodzi/384.jpg,77,342,181,238
otsochodzi/391.jpg,77,733,149,661
otsochodzi/391.jpg,5,405,77,333
otsochodzi/178.jpg,209,950,424,735
otsochodzi/3.jpg,148,673,272,549
otsochodzi/191.jpg,64,352,150,266
otsochodzi/47.jpg,301,293,373,221
otsochodzi/1.jpg,141,285,227,198
otsochodzi/152.jpg,69,429,141,357
otsochodzi/90.jpg,185,711,400,496
otsochodzi/146.png,107,424,231,300
otsochodzi/224.png,419,553,506,467
otsochodzi/224.png,94,512,273,333
otsochodzi/225.jpg,61,637,133,565
otsochodzi/231.jpg,54,390,141,304
otsochodzi/392.jpg,467,525,553,438
otsochodzi/0.jpg,89,446,192,342
otsochodzi/46.jpg,78,626,228,476
